<?xml version="1.0" encoding="UTF-8" standalone="no"?>
<!-- Generator: Adobe Illustrator 19.0.0, SVG Export Plug-In . SVG Version: 6.00 Build 0)  -->

<svg
   version="1.1"
   id="Layer_1"
   x="0px"
   y="0px"
   viewBox="0 0 512 512"
   style="enable-background:new 0 0 512 512;"
   xml:space="preserve"
   sodipodi:docname="corner_ne.svg"
   inkscape:version="1.1.1 (3bf5ae0d25, 2021-09-20)"
   xmlns:inkscape="http://www.inkscape.org/namespaces/inkscape"
   xmlns:sodipodi="http://sodipodi.sourceforge.net/DTD/sodipodi-0.dtd"
   xmlns="http://www.w3.org/2000/svg"
   xmlns:svg="http://www.w3.org/2000/svg"><defs
   id="defs41">




	












	

		
	
	

		
	





























	


		
	</defs><sodipodi:namedview
   id="namedview39"
   pagecolor="#ffffff"
   bordercolor="#666666"
   borderopacity="1.0"
   inkscape:pageshadow="2"
   inkscape:pageopacity="0.0"
   inkscape:pagecheckerboard="0"
   showgrid="false"
   inkscape:zoom="5.3560498"
   inkscape:cx="335.0417"
   inkscape:cy="212.28331"
   inkscape:window-width="1920"
   inkscape:window-height="1048"
   inkscape:window-x="1366"
   inkscape:window-y="0"
   inkscape:window-maximized="1"
   inkscape:current-layer="layer3" />

<g
   id="g8">
</g>
<g
   id="g10">
</g>
<g
   id="g12">
</g>
<g
   id="g14">
</g>
<g
   id="g16">
</g>
<g
   id="g18">
</g>
<g
   id="g20">
</g>
<g
   id="g22">
</g>
<g
   id="g24">
</g>
<g
   id="g26">
</g>
<g
   id="g28">
</g>
<g
   id="g30">
</g>
<g
   id="g32">
</g>
<g
   id="g34">
</g>
<g
   id="g36">
</g>
<g
   inkscape:groupmode="layer"
   id="layer3"
   inkscape:label="Layer 1"><g
     id="g8-7"
     transform="matrix(0.6,0,0,0.6,72.399284,72.399441)">
</g><g
     id="g10-9"
     transform="matrix(0.6,0,0,0.6,72.399284,72.399441)">
</g><g
     id="g12-2"
     transform="matrix(0.6,0,0,0.6,72.399284,72.399441)">
</g><g
     id="g14-0"
     transform="matrix(0.6,0,0,0.6,72.399284,72.399441)">
</g><g
     id="g16-2"
     transform="matrix(0.6,0,0,0.6,72.399284,72.399441)">
</g><g
     id="g18-3"
     transform="matrix(0.6,0,0,0.6,72.399284,72.399441)">
</g><g
     id="g20-7"
     transform="matrix(0.6,0,0,0.6,72.399284,72.399441)">
</g><g
     id="g22-5"
     transform="matrix(0.6,0,0,0.6,72.399284,72.399441)">
</g><g
     id="g24-9"
     transform="matrix(0.6,0,0,0.6,72.399284,72.399441)">
</g><g
     id="g26-2"
     transform="matrix(0.6,0,0,0.6,72.399284,72.399441)">
</g><g
     id="g28-2"
     transform="matrix(0.6,0,0,0.6,72.399284,72.399441)">
</g><g
     id="g30-8"
     transform="matrix(0.6,0,0,0.6,72.399284,72.399441)">
</g><g
     id="g32-9"
     transform="matrix(0.6,0,0,0.6,72.399284,72.399441)">
</g><g
     id="g34-7"
     transform="matrix(0.6,0,0,0.6,72.399284,72.399441)">
</g><g
     id="g36-3"
     transform="matrix(0.6,0,0,0.6,72.399284,72.399441)">
</g><path
     id="path2-5"
     style="fill:#e6e6e6;stroke-width:0.6"
     d="m 343.27148,156.29688 c -0.62571,0 -1.23524,0.038 -1.83398,0.0957 h -73.60547 c -3.8154,0 -6.91211,5.16049 -6.91211,11.51953 v 7.67969 c 0,6.35904 3.09671,11.52148 6.91211,11.52148 h 63.91992 v 63.64649 c 0,3.81541 5.16049,6.91211 11.51953,6.91211 h 7.67969 c 6.35904,0 11.51953,-3.09668 11.51953,-6.91211 v -87.55079 c 0,-1.82652 -1.19033,-3.48451 -3.12109,-4.7207 -1.1235,-1.31648 -2.49006,-2.0957 -3.9668,-2.0957 h -2.59765 c -0.59874,-0.0577 -1.20828,-0.0957 -1.83399,-0.0957 z M 203.2207,204.55859 c -1.47758,0 -2.86244,0.65107 -4.06445,1.78125 -2.40419,1.28506 -3.92773,3.15197 -3.92773,5.23438 v 3.15625 c -0.19158,1.16528 -0.30274,2.38615 -0.30274,3.65234 v 9.21485 c 0,1.26619 0.11116,2.48706 0.30274,3.65234 v 49.48047 c -0.19158,1.16528 -0.30274,2.38615 -0.30274,3.65234 v 9.21485 c 0,1.26619 0.11116,2.48706 0.30274,3.65234 v 3.17578 c 0,2.09449 1.54222,3.96825 3.9707,5.25391 1.19235,1.10604 2.56097,1.74219 4.02148,1.74219 h 3.06446 c 0.21227,0.007 0.42159,0.0195 0.63672,0.0195 h 7.79296 c 0.21511,0 0.42445,-0.0125 0.63672,-0.0195 h 81.60156 c 0.21191,0.007 0.42003,0.0195 0.63477,0.0195 h 7.79492 c 0.21511,0 0.42445,-0.0125 0.63672,-0.0195 h 2.26563 c 1.06093,0 2.07111,-0.34331 3.0039,-0.94922 3.45623,-1.2191 5.78516,-3.46899 5.78516,-6.04688 v -88.85156 c 0,-2.55598 -2.29152,-4.78558 -5.69922,-6.01172 -0.95637,-0.64195 -1.99613,-1.00391 -3.08984,-1.00391 h -2.90235 -7.79492 z" /></g></svg>
