<?xml version="1.0" encoding="UTF-8" standalone="no"?>
<!-- Generator: Adobe Illustrator 19.0.0, SVG Export Plug-In . SVG Version: 6.00 Build 0)  -->

<svg
   version="1.1"
   id="Layer_1"
   x="0px"
   y="0px"
   viewBox="0 0 512 512"
   style="enable-background:new 0 0 512 512;"
   xml:space="preserve"
   sodipodi:docname="max.svg"
   inkscape:version="1.1.1 (3bf5ae0d25, 2021-09-20)"
   xmlns:inkscape="http://www.inkscape.org/namespaces/inkscape"
   xmlns:sodipodi="http://sodipodi.sourceforge.net/DTD/sodipodi-0.dtd"
   xmlns="http://www.w3.org/2000/svg"
   xmlns:svg="http://www.w3.org/2000/svg"><defs
   id="defs41">




	












	

		
	
	

		
	















	
















		
	</defs><sodipodi:namedview
   id="namedview39"
   pagecolor="#ffffff"
   bordercolor="#666666"
   borderopacity="1.0"
   inkscape:pageshadow="2"
   inkscape:pageopacity="0.0"
   inkscape:pagecheckerboard="0"
   showgrid="false"
   inkscape:zoom="1"
   inkscape:cx="246.5"
   inkscape:cy="272"
   inkscape:window-width="1920"
   inkscape:window-height="1048"
   inkscape:window-x="1366"
   inkscape:window-y="0"
   inkscape:window-maximized="1"
   inkscape:current-layer="layer3" />

<g
   id="g8">
</g>
<g
   id="g10">
</g>
<g
   id="g12">
</g>
<g
   id="g14">
</g>
<g
   id="g16">
</g>
<g
   id="g18">
</g>
<g
   id="g20">
</g>
<g
   id="g22">
</g>
<g
   id="g24">
</g>
<g
   id="g26">
</g>
<g
   id="g28">
</g>
<g
   id="g30">
</g>
<g
   id="g32">
</g>
<g
   id="g34">
</g>
<g
   id="g36">
</g>
<g
   inkscape:groupmode="layer"
   id="layer3"
   inkscape:label="Layer 1"><g
     id="g8-7"
     transform="matrix(0.6,0,0,0.6,72.399284,72.399441)">
</g><g
     id="g10-9"
     transform="matrix(0.6,0,0,0.6,72.399284,72.399441)">
</g><g
     id="g12-2"
     transform="matrix(0.6,0,0,0.6,72.399284,72.399441)">
</g><g
     id="g14-0"
     transform="matrix(0.6,0,0,0.6,72.399284,72.399441)">
</g><g
     id="g16-2"
     transform="matrix(0.6,0,0,0.6,72.399284,72.399441)">
</g><g
     id="g18-3"
     transform="matrix(0.6,0,0,0.6,72.399284,72.399441)">
</g><g
     id="g20-7"
     transform="matrix(0.6,0,0,0.6,72.399284,72.399441)">
</g><g
     id="g22-5"
     transform="matrix(0.6,0,0,0.6,72.399284,72.399441)">
</g><g
     id="g24-9"
     transform="matrix(0.6,0,0,0.6,72.399284,72.399441)">
</g><g
     id="g26-2"
     transform="matrix(0.6,0,0,0.6,72.399284,72.399441)">
</g><g
     id="g28-2"
     transform="matrix(0.6,0,0,0.6,72.399284,72.399441)">
</g><g
     id="g30-8"
     transform="matrix(0.6,0,0,0.6,72.399284,72.399441)">
</g><g
     id="g32-9"
     transform="matrix(0.6,0,0,0.6,72.399284,72.399441)">
</g><g
     id="g34-7"
     transform="matrix(0.6,0,0,0.6,72.399284,72.399441)">
</g><g
     id="g36-3"
     transform="matrix(0.6,0,0,0.6,72.399284,72.399441)">
</g><path
     id="path2-5"
     style="fill:#e6e6e6;stroke-width:0.6"
     d="m 300.76172,175.79883 -51.60156,0.002 c -7.88633,0 -14.27961,6.39328 -14.2793,14.2793 0,7.88632 6.39313,14.28062 14.2793,14.2793 l 51.60156,-0.002 c 4.0797,-4.8e-4 7.40093,3.31928 7.40039,7.39844 l -0.002,51.60352 c 4.8e-4,3.94314 1.59903,7.51307 4.18359,10.09765 2.58354,2.58351 6.15374,4.1813 10.09766,4.18164 7.88556,-1.7e-4 14.27728,-6.39305 14.27734,-14.27929 l 0.002,-51.60352 c 0,-19.82439 -16.13252,-35.95482 -35.95898,-35.95703 z m -111.68555,59.82422 c -7.88556,1.8e-4 -14.27728,6.39304 -14.27734,14.27929 l -0.002,51.60547 c 0,19.82438 16.13251,35.95288 35.95898,35.95508 l 51.60156,-0.002 c 7.88632,0 14.2796,-6.39329 14.2793,-14.2793 0,-7.88632 -6.39313,-14.27871 -14.2793,-14.27734 h -51.60156 c -4.07969,4.9e-4 -7.40092,-3.31929 -7.40039,-7.39844 l 0.002,-51.60352 c -4.8e-4,-3.94316 -1.59903,-7.51306 -4.18359,-10.09765 -2.58354,-2.5835 -6.15373,-4.1813 -10.09766,-4.18164 z" /></g></svg>
