<?xml version="1.0" encoding="UTF-8" standalone="no"?>
<!-- Generator: Adobe Illustrator 19.0.0, SVG Export Plug-In . SVG Version: 6.00 Build 0)  -->

<svg
   version="1.1"
   id="Layer_1"
   x="0px"
   y="0px"
   viewBox="0 0 512 512"
   style="enable-background:new 0 0 512 512;"
   xml:space="preserve"
   sodipodi:docname="tile.svg"
   inkscape:version="1.1.1 (3bf5ae0d25, 2021-09-20)"
   xmlns:inkscape="http://www.inkscape.org/namespaces/inkscape"
   xmlns:sodipodi="http://sodipodi.sourceforge.net/DTD/sodipodi-0.dtd"
   xmlns="http://www.w3.org/2000/svg"
   xmlns:svg="http://www.w3.org/2000/svg"><defs
   id="defs41">




	












	

		
	
	

		
	





























	


		
	</defs><sodipodi:namedview
   id="namedview39"
   pagecolor="#ffffff"
   bordercolor="#666666"
   borderopacity="1.0"
   inkscape:pageshadow="2"
   inkscape:pageopacity="0.0"
   inkscape:pagecheckerboard="0"
   showgrid="false"
   inkscape:zoom="1"
   inkscape:cx="205.5"
   inkscape:cy="194"
   inkscape:window-width="1920"
   inkscape:window-height="1048"
   inkscape:window-x="1366"
   inkscape:window-y="0"
   inkscape:window-maximized="1"
   inkscape:current-layer="layer3" />

<g
   id="g8">
</g>
<g
   id="g10">
</g>
<g
   id="g12">
</g>
<g
   id="g14">
</g>
<g
   id="g16">
</g>
<g
   id="g18">
</g>
<g
   id="g20">
</g>
<g
   id="g22">
</g>
<g
   id="g24">
</g>
<g
   id="g26">
</g>
<g
   id="g28">
</g>
<g
   id="g30">
</g>
<g
   id="g32">
</g>
<g
   id="g34">
</g>
<g
   id="g36">
</g>
<g
   inkscape:groupmode="layer"
   id="layer3"
   inkscape:label="Layer 1"><g
     id="g8-7"
     transform="matrix(0.6,0,0,0.6,72.399284,72.399441)">
</g><g
     id="g10-9"
     transform="matrix(0.6,0,0,0.6,72.399284,72.399441)">
</g><g
     id="g12-2"
     transform="matrix(0.6,0,0,0.6,72.399284,72.399441)">
</g><g
     id="g14-0"
     transform="matrix(0.6,0,0,0.6,72.399284,72.399441)">
</g><g
     id="g16-2"
     transform="matrix(0.6,0,0,0.6,72.399284,72.399441)">
</g><g
     id="g18-3"
     transform="matrix(0.6,0,0,0.6,72.399284,72.399441)">
</g><g
     id="g20-7"
     transform="matrix(0.6,0,0,0.6,72.399284,72.399441)">
</g><g
     id="g22-5"
     transform="matrix(0.6,0,0,0.6,72.399284,72.399441)">
</g><g
     id="g24-9"
     transform="matrix(0.6,0,0,0.6,72.399284,72.399441)">
</g><g
     id="g26-2"
     transform="matrix(0.6,0,0,0.6,72.399284,72.399441)">
</g><g
     id="g28-2"
     transform="matrix(0.6,0,0,0.6,72.399284,72.399441)">
</g><g
     id="g30-8"
     transform="matrix(0.6,0,0,0.6,72.399284,72.399441)">
</g><g
     id="g32-9"
     transform="matrix(0.6,0,0,0.6,72.399284,72.399441)">
</g><g
     id="g34-7"
     transform="matrix(0.6,0,0,0.6,72.399284,72.399441)">
</g><g
     id="g36-3"
     transform="matrix(0.6,0,0,0.6,72.399284,72.399441)">
</g><path
     id="path1532"
     style="fill:#e6e6e6;stroke-width:0.734057"
     d="M 192.16211 174.99609 C 191.85899 174.99609 191.56059 175.02693 191.26562 175.07812 L 168.875 175.07422 C 156.97912 175.07642 147.30078 191.20492 147.30078 211.0293 L 147.30078 262.63477 C 147.30078 263.39722 147.34692 264.13903 147.41602 264.86914 L 147.41602 300.99609 C 147.41734 320.82256 157.0956 336.95509 168.99023 336.95508 L 191.45508 336.95312 C 191.6367 336.97232 191.81745 337 192.00195 337 L 222.96289 337.00391 L 222.96484 337.00391 C 234.86068 337.0017 244.53906 320.87126 244.53906 301.04688 L 244.53906 265.28125 C 244.64142 264.39892 244.69922 263.49074 244.69922 262.55859 L 244.69922 210.95312 C 244.6979 191.12672 235.01964 174.9961 223.125 174.99609 L 192.16211 174.99609 z M 272.27344 185.95508 C 268.458 185.95508 265.36133 191.11557 265.36133 197.47461 L 265.36133 203.19727 L 265.36133 205.1543 L 265.36133 214.69141 C 265.36133 224.20947 268.45801 231.93359 272.27344 231.93359 L 359.82617 231.93359 C 363.64156 231.93359 366.73828 224.20947 366.73828 214.69141 L 366.73828 205.1543 L 366.73828 203.19727 L 366.73828 197.47461 C 366.73828 191.11557 363.64156 185.95508 359.82617 185.95508 L 272.27344 185.95508 z M 271.76758 280.06055 C 267.95214 280.06055 264.85547 285.22104 264.85547 291.58008 L 264.85547 297.30273 L 264.85547 299.25977 L 264.85547 308.79688 C 264.85547 318.31493 267.95215 326.03906 271.76758 326.03906 L 359.32031 326.03906 C 363.1357 326.03906 366.23242 318.31493 366.23242 308.79688 L 366.23242 299.25977 L 366.23242 297.30273 L 366.23242 291.58008 C 366.23242 285.22104 363.1357 280.06055 359.32031 280.06055 L 271.76758 280.06055 z " /></g></svg>
