<?xml version="1.0" encoding="UTF-8" standalone="no"?>
<!-- Created with Inkscape (http://www.inkscape.org/) -->

<svg
   width="180mm"
   height="180mm"
   viewBox="0 0 180 180"
   version="1.1"
   id="svg5"
   inkscape:version="1.1.1 (3bf5ae0d25, 2021-09-20)"
   sodipodi:docname="text_editor.svg"
   xmlns:inkscape="http://www.inkscape.org/namespaces/inkscape"
   xmlns:sodipodi="http://sodipodi.sourceforge.net/DTD/sodipodi-0.dtd"
   xmlns="http://www.w3.org/2000/svg"
   xmlns:svg="http://www.w3.org/2000/svg">
  <sodipodi:namedview
     id="namedview7"
     pagecolor="#ffffff"
     bordercolor="#666666"
     borderopacity="1.0"
     inkscape:pageshadow="2"
     inkscape:pageopacity="0.0"
     inkscape:pagecheckerboard="0"
     inkscape:document-units="mm"
     showgrid="false"
     inkscape:zoom="1"
     inkscape:cx="326.5"
     inkscape:cy="309"
     inkscape:window-width="1920"
     inkscape:window-height="1048"
     inkscape:window-x="1366"
     inkscape:window-y="0"
     inkscape:window-maximized="1"
     inkscape:current-layer="g2219" />
  <defs
     id="defs2" />
  <g
     inkscape:label="Layer 1"
     inkscape:groupmode="layer"
     id="layer1">
    <g
       id="g2219"
       transform="translate(112.26498,-6.5472586)">
      <g
         id="g824">
        <path
           style="fill:#cccccc;fill-opacity:1;stroke-width:1.5671"
           d="m -47.338503,129.45627 c -2.914252,-2.91426 -3.1342,-5.22366 -3.1342,-32.909009 0,-38.362179 -1.814844,-36.043196 28.207719,-36.043196 30.0225864,0 28.2077264,-2.318983 28.2077264,36.043196 0,38.362179 1.81486,36.043189 -28.2077264,36.043189 -19.849864,0 -22.237824,-0.29849 -25.073519,-3.13418 z M -1.1091876,96.547261 V 67.555995 H -22.264984 -43.42077 l -0.430218,27.369115 c -0.236617,15.05301 -0.07457,28.29594 0.360132,29.42874 0.609972,1.58958 5.536344,1.95979 21.586005,1.62215 l 20.7956634,-0.43747 z M -37.201461,116.84007 c -2.192483,-3.5475 2.21546,-4.7409 15.863025,-4.29472 11.162082,0.36491 13.9608664,0.92765 13.9608664,2.80706 0,1.88589 -2.8406674,2.43939 -14.3678524,2.79953 -9.396482,0.29357 -14.744364,-0.16035 -15.456039,-1.31187 z m 0,-12.53676 c -2.192483,-3.5475 2.21546,-4.740895 15.863025,-4.29473 11.162082,0.36492 13.9608664,0.92766 13.9608664,2.80706 0,1.88589 -2.8406674,2.43939 -14.3678524,2.79953 -9.396482,0.29358 -14.744364,-0.16034 -15.456039,-1.31186 z m 0,-12.536764 c -2.192483,-3.547499 2.21546,-4.740896 15.863025,-4.294723 11.162082,0.364915 13.9608664,0.927656 13.9608664,2.807056 0,1.885899 -2.8406674,2.439394 -14.3678524,2.799534 -9.396482,0.293571 -14.744364,-0.160343 -15.456039,-1.311867 z m 0,-12.536764 c -2.192483,-3.547499 2.21546,-4.740896 15.863025,-4.294723 11.162082,0.364913 13.9608664,0.927656 13.9608664,2.807056 0,1.885899 -2.8406674,2.439393 -14.3678524,2.799534 -9.396482,0.293571 -14.744364,-0.160343 -15.456039,-1.311867 z"
           id="path835" />
      </g>
    </g>
  </g>
</svg>
