<?xml version="1.0" encoding="UTF-8" standalone="no"?>
<!-- Created with Inkscape (http://www.inkscape.org/) -->

<svg
   width="180mm"
   height="180mm"
   viewBox="0 0 180 180"
   version="1.1"
   id="svg5"
   inkscape:version="1.1.1 (3bf5ae0d25, 2021-09-20)"
   sodipodi:docname="battery_5.svg"
   xmlns:inkscape="http://www.inkscape.org/namespaces/inkscape"
   xmlns:sodipodi="http://sodipodi.sourceforge.net/DTD/sodipodi-0.dtd"
   xmlns="http://www.w3.org/2000/svg"
   xmlns:svg="http://www.w3.org/2000/svg">
  <sodipodi:namedview
     id="namedview7"
     pagecolor="#ffffff"
     bordercolor="#666666"
     borderopacity="1.0"
     inkscape:pageshadow="2"
     inkscape:pageopacity="0.0"
     inkscape:pagecheckerboard="0"
     inkscape:document-units="mm"
     showgrid="false"
     inkscape:zoom="0.5"
     inkscape:cx="485"
     inkscape:cy="420"
     inkscape:window-width="1920"
     inkscape:window-height="1048"
     inkscape:window-x="1366"
     inkscape:window-y="0"
     inkscape:window-maximized="1"
     inkscape:current-layer="layer1" />
  <defs
     id="defs2" />
  <g
     inkscape:label="Layer 1"
     inkscape:groupmode="layer"
     id="layer1">
    <g
       id="g8440"
       style="fill:#cccccc"
       transform="matrix(2.4417261,0,0,2.4417261,-127.58006,-140.07648)">
      <path
         style="fill:#cccccc;fill-opacity:1;stroke-width:0.920837"
         d="M 64.246529,94.226979 V 79.493591 h 22.560499 22.560502 v 3.222929 c 0,2.8239 0.28502,3.222929 2.30209,3.222929 2.28504,0 2.30209,0.06139 2.30209,8.28753 0,8.226141 -0.017,8.287531 -2.30209,8.287531 -2.01707,0 -2.30209,0.39903 -2.30209,3.22293 v 3.22293 H 86.807028 64.246529 Z m 41.437651,7.827111 c 0,-2.823898 0.28502,-3.222927 2.30209,-3.222927 2.14862,0 2.30209,-0.306946 2.30209,-4.604184 0,-4.297238 -0.15347,-4.604184 -2.30209,-4.604184 -2.01707,0 -2.30209,-0.399029 -2.30209,-3.222928 V 83.176938 H 86.807028 67.929875 V 94.226979 105.27702 H 86.807028 105.68418 Z M 72.534059,94.226979 c 0,-5.831966 0.175397,-6.445857 1.841673,-6.445857 1.666277,0 1.841674,0.613891 1.841674,6.445857 0,5.831961 -0.175397,6.445861 -1.841674,6.445861 -1.666276,0 -1.841673,-0.6139 -1.841673,-6.445861 z m 6.445857,0 c 0,-5.831966 0.175397,-6.445857 1.841674,-6.445857 1.666276,0 1.841673,0.613891 1.841673,6.445857 0,5.831961 -0.175397,6.445861 -1.841673,6.445861 -1.666277,0 -1.841674,-0.6139 -1.841674,-6.445861 z m 6.445857,0 c 0,-5.831966 0.175397,-6.445857 1.841674,-6.445857 1.666276,0 1.841673,0.613891 1.841673,6.445857 0,5.831961 -0.175397,6.445861 -1.841673,6.445861 -1.666277,0 -1.841674,-0.6139 -1.841674,-6.445861 z m 6.445857,0 c 0,-5.831966 0.175397,-6.445857 1.841674,-6.445857 1.666276,0 1.841673,0.613891 1.841673,6.445857 0,5.831961 -0.175397,6.445861 -1.841673,6.445861 -1.666277,0 -1.841674,-0.6139 -1.841674,-6.445861 z m 6.445857,0 c 0,-5.831966 0.175397,-6.445857 1.841673,-6.445857 1.66628,0 1.84167,0.613891 1.84167,6.445857 0,5.831961 -0.17539,6.445861 -1.84167,6.445861 -1.666276,0 -1.841673,-0.6139 -1.841673,-6.445861 z"
         id="path8454" />
      <path
         style="fill:#cccccc;fill-opacity:1;stroke-width:0.920837"
         d="M 64.246529,94.226979 V 79.493591 h 22.560499 22.560502 v 3.222929 c 0,2.8239 0.28502,3.222929 2.30209,3.222929 2.28504,0 2.30209,0.06139 2.30209,8.28753 0,8.226141 -0.017,8.287531 -2.30209,8.287531 -2.01707,0 -2.30209,0.39903 -2.30209,3.22293 v 3.22293 H 86.807028 64.246529 Z m 41.437651,7.827111 c 0,-2.823898 0.28502,-3.222927 2.30209,-3.222927 2.14862,0 2.30209,-0.306946 2.30209,-4.604184 0,-4.297238 -0.15347,-4.604184 -2.30209,-4.604184 -2.01707,0 -2.30209,-0.399029 -2.30209,-3.222928 V 83.176938 H 86.807028 67.929875 V 94.226979 105.27702 H 86.807028 105.68418 Z M 72.534059,94.226979 c 0,-5.831966 0.175397,-6.445857 1.841673,-6.445857 1.666277,0 1.841674,0.613891 1.841674,6.445857 0,5.831961 -0.175397,6.445861 -1.841674,6.445861 -1.666276,0 -1.841673,-0.6139 -1.841673,-6.445861 z m 6.445857,0 c 0,-5.831966 0.175397,-6.445857 1.841674,-6.445857 1.666276,0 1.841673,0.613891 1.841673,6.445857 0,5.831961 -0.175397,6.445861 -1.841673,6.445861 -1.666277,0 -1.841674,-0.6139 -1.841674,-6.445861 z m 6.445857,0 c 0,-5.831966 0.175397,-6.445857 1.841674,-6.445857 1.666276,0 1.841673,0.613891 1.841673,6.445857 0,5.831961 -0.175397,6.445861 -1.841673,6.445861 -1.666277,0 -1.841674,-0.6139 -1.841674,-6.445861 z m 6.445857,0 c 0,-5.831966 0.175397,-6.445857 1.841674,-6.445857 1.666276,0 1.841673,0.613891 1.841673,6.445857 0,5.831961 -0.175397,6.445861 -1.841673,6.445861 -1.666277,0 -1.841674,-0.6139 -1.841674,-6.445861 z m 6.445857,0 c 0,-5.831966 0.175397,-6.445857 1.841673,-6.445857 1.66628,0 1.84167,0.613891 1.84167,6.445857 0,5.831961 -0.17539,6.445861 -1.84167,6.445861 -1.666276,0 -1.841673,-0.6139 -1.841673,-6.445861 z"
         id="path8452" />
      <path
         style="fill:#cccccc;fill-opacity:1;stroke-width:0.920837"
         d="m 64.658033,107.78369 c -0.2554,-0.66556 -0.348876,-7.19951 -0.207724,-14.519892 L 64.706947,79.95401 h 22.100081 22.100082 l 0.2843,2.935763 c 0.21402,2.20993 0.78318,3.006761 2.3021,3.222928 1.89571,0.269792 2.01778,0.760705 2.01778,8.114278 0,7.353571 -0.12207,7.844481 -2.01778,8.114281 -1.51892,0.21616 -2.08808,1.013 -2.3021,3.22293 l -0.2843,2.93576 -21.892358,0.24693 c -17.410561,0.19637 -21.98742,-8.1e-4 -22.356719,-0.96319 z m 41.198017,-5.49939 c 0.22116,-2.293754 0.77245,-3.061444 2.36043,-3.286973 1.82411,-0.259065 2.07188,-0.829551 2.07188,-4.770348 0,-3.940797 -0.24777,-4.511283 -2.07188,-4.770348 -1.58798,-0.225529 -2.13927,-0.993219 -2.36043,-3.286973 l -0.28855,-2.99272 H 86.748686 67.929875 V 94.226979 105.27702 H 86.748686 105.5675 Z M 72.942662,99.488602 c -0.282261,-0.735561 -0.386074,-3.567062 -0.230694,-6.292223 0.208958,-3.66485 0.642118,-4.954839 1.663764,-4.954839 1.80976,0 2.029119,11.601451 0.230694,12.20093 -0.632809,0.21093 -1.381503,-0.21831 -1.663764,-0.953868 z m 6.445857,0 c -0.282261,-0.735561 -0.386074,-3.567062 -0.230694,-6.292223 0.208959,-3.66485 0.642118,-4.954839 1.663765,-4.954839 1.809759,0 2.029118,11.601451 0.230693,12.20093 -0.632809,0.21093 -1.381503,-0.21831 -1.663764,-0.953868 z m 6.445857,0 c -0.282261,-0.735561 -0.386074,-3.567062 -0.230694,-6.292223 0.208959,-3.66485 0.642118,-4.954839 1.663765,-4.954839 1.809759,0 2.029118,11.601451 0.230693,12.20093 -0.632809,0.21093 -1.381503,-0.21831 -1.663764,-0.953868 z m 6.445857,0 c -0.282261,-0.735561 -0.386074,-3.567062 -0.230694,-6.292223 0.208959,-3.66485 0.642118,-4.954839 1.663765,-4.954839 1.809759,0 2.029118,11.601451 0.230693,12.20093 -0.632809,0.21093 -1.381503,-0.21831 -1.663764,-0.953868 z m 6.445857,0 c -0.282261,-0.735561 -0.386074,-3.567062 -0.230693,-6.292223 0.208958,-3.66485 0.642117,-4.954839 1.663763,-4.954839 1.80976,0 2.02912,11.601451 0.23069,12.20093 -0.632805,0.21093 -1.381499,-0.21831 -1.66376,-0.953868 z"
         id="path8450" />
      <path
         style="fill:#cccccc;fill-opacity:1;stroke-width:0.920837"
         d="m 64.658033,107.78369 c -0.2554,-0.66556 -0.348876,-7.19951 -0.207724,-14.519892 L 64.706947,79.95401 h 22.100081 22.100082 l 0.2843,2.935763 c 0.21402,2.20993 0.78318,3.006761 2.3021,3.222928 1.89571,0.269792 2.01778,0.760705 2.01778,8.114278 0,7.353571 -0.12207,7.844481 -2.01778,8.114281 -1.51892,0.21616 -2.08808,1.013 -2.3021,3.22293 l -0.2843,2.93576 -21.892358,0.24693 c -17.410561,0.19637 -21.98742,-8.1e-4 -22.356719,-0.96319 z m 41.198017,-5.49939 c 0.22116,-2.293754 0.77245,-3.061444 2.36043,-3.286973 1.82411,-0.259065 2.07188,-0.829551 2.07188,-4.770348 0,-3.940797 -0.24777,-4.511283 -2.07188,-4.770348 -1.58798,-0.225529 -2.13927,-0.993219 -2.36043,-3.286973 l -0.28855,-2.99272 H 86.748686 67.929875 V 94.226979 105.27702 H 86.748686 105.5675 Z M 72.942662,99.488602 c -0.282261,-0.735561 -0.386074,-3.567062 -0.230694,-6.292223 0.208958,-3.66485 0.642118,-4.954839 1.663764,-4.954839 1.80976,0 2.029119,11.601451 0.230694,12.20093 -0.632809,0.21093 -1.381503,-0.21831 -1.663764,-0.953868 z m 6.445857,0 c -0.282261,-0.735561 -0.386074,-3.567062 -0.230694,-6.292223 0.208959,-3.66485 0.642118,-4.954839 1.663765,-4.954839 1.809759,0 2.029118,11.601451 0.230693,12.20093 -0.632809,0.21093 -1.381503,-0.21831 -1.663764,-0.953868 z m 6.445857,0 c -0.282261,-0.735561 -0.386074,-3.567062 -0.230694,-6.292223 0.208959,-3.66485 0.642118,-4.954839 1.663765,-4.954839 1.809759,0 2.029118,11.601451 0.230693,12.20093 -0.632809,0.21093 -1.381503,-0.21831 -1.663764,-0.953868 z m 6.445857,0 c -0.282261,-0.735561 -0.386074,-3.567062 -0.230694,-6.292223 0.208959,-3.66485 0.642118,-4.954839 1.663765,-4.954839 1.809759,0 2.029118,11.601451 0.230693,12.20093 -0.632809,0.21093 -1.381503,-0.21831 -1.663764,-0.953868 z m 6.445857,0 c -0.282261,-0.735561 -0.386074,-3.567062 -0.230693,-6.292223 0.208958,-3.66485 0.642117,-4.954839 1.663763,-4.954839 1.80976,0 2.02912,11.601451 0.23069,12.20093 -0.632805,0.21093 -1.381499,-0.21831 -1.66376,-0.953868 z"
         id="path8448" />
      <path
         style="fill:#cccccc;fill-opacity:1;stroke-width:0.920837"
         d="m 64.658033,107.78369 c -0.2554,-0.66556 -0.348876,-7.19951 -0.207724,-14.519892 L 64.706947,79.95401 h 22.100081 22.100082 l 0.2843,2.935763 c 0.21402,2.20993 0.78318,3.006761 2.3021,3.222928 1.89571,0.269792 2.01778,0.760705 2.01778,8.114278 0,7.353571 -0.12207,7.844481 -2.01778,8.114281 -1.51892,0.21616 -2.08808,1.013 -2.3021,3.22293 l -0.2843,2.93576 -21.892358,0.24693 c -17.410561,0.19637 -21.98742,-8.1e-4 -22.356719,-0.96319 z m 41.198017,-5.49939 c 0.22116,-2.293754 0.77245,-3.061444 2.36043,-3.286973 1.82411,-0.259065 2.07188,-0.829551 2.07188,-4.770348 0,-3.940797 -0.24777,-4.511283 -2.07188,-4.770348 -1.58798,-0.225529 -2.13927,-0.993219 -2.36043,-3.286973 l -0.28855,-2.99272 H 86.748686 67.929875 V 94.226979 105.27702 H 86.748686 105.5675 Z M 72.942662,99.488602 c -0.282261,-0.735561 -0.386074,-3.567062 -0.230694,-6.292223 0.208958,-3.66485 0.642118,-4.954839 1.663764,-4.954839 1.80976,0 2.029119,11.601451 0.230694,12.20093 -0.632809,0.21093 -1.381503,-0.21831 -1.663764,-0.953868 z m 6.445857,0 c -0.282261,-0.735561 -0.386074,-3.567062 -0.230694,-6.292223 0.208959,-3.66485 0.642118,-4.954839 1.663765,-4.954839 1.809759,0 2.029118,11.601451 0.230693,12.20093 -0.632809,0.21093 -1.381503,-0.21831 -1.663764,-0.953868 z m 6.445857,0 c -0.282261,-0.735561 -0.386074,-3.567062 -0.230694,-6.292223 0.208959,-3.66485 0.642118,-4.954839 1.663765,-4.954839 1.809759,0 2.029118,11.601451 0.230693,12.20093 -0.632809,0.21093 -1.381503,-0.21831 -1.663764,-0.953868 z m 6.445857,0 c -0.282261,-0.735561 -0.386074,-3.567062 -0.230694,-6.292223 0.208959,-3.66485 0.642118,-4.954839 1.663765,-4.954839 1.809759,0 2.029118,11.601451 0.230693,12.20093 -0.632809,0.21093 -1.381503,-0.21831 -1.663764,-0.953868 z m 6.445857,0 c -0.282261,-0.735561 -0.386074,-3.567062 -0.230693,-6.292223 0.208958,-3.66485 0.642117,-4.954839 1.663763,-4.954839 1.80976,0 2.02912,11.601451 0.23069,12.20093 -0.632805,0.21093 -1.381499,-0.21831 -1.66376,-0.953868 z"
         id="path8446" />
      <path
         style="fill:#cccccc;fill-opacity:1;stroke-width:0.920837"
         d="m 64.658033,107.78369 c -0.2554,-0.66556 -0.348876,-7.19951 -0.207724,-14.519892 L 64.706947,79.95401 h 22.100081 22.100082 l 0.2843,2.935763 c 0.21402,2.20993 0.78318,3.006761 2.3021,3.222928 1.89571,0.269792 2.01778,0.760705 2.01778,8.114278 0,7.353571 -0.12207,7.844481 -2.01778,8.114281 -1.51892,0.21616 -2.08808,1.013 -2.3021,3.22293 l -0.2843,2.93576 -21.892358,0.24693 c -17.410561,0.19637 -21.98742,-8.1e-4 -22.356719,-0.96319 z m 41.198017,-5.49939 c 0.22116,-2.293754 0.77245,-3.061444 2.36043,-3.286973 1.82411,-0.259065 2.07188,-0.829551 2.07188,-4.770348 0,-3.940797 -0.24777,-4.511283 -2.07188,-4.770348 -1.58798,-0.225529 -2.13927,-0.993219 -2.36043,-3.286973 l -0.28855,-2.99272 H 86.748686 67.929875 V 94.226979 105.27702 H 86.748686 105.5675 Z M 72.942662,99.488602 c -0.282261,-0.735561 -0.386074,-3.567062 -0.230694,-6.292223 0.208958,-3.66485 0.642118,-4.954839 1.663764,-4.954839 1.80976,0 2.029119,11.601451 0.230694,12.20093 -0.632809,0.21093 -1.381503,-0.21831 -1.663764,-0.953868 z m 6.445857,0 c -0.282261,-0.735561 -0.386074,-3.567062 -0.230694,-6.292223 0.208959,-3.66485 0.642118,-4.954839 1.663765,-4.954839 1.809759,0 2.029118,11.601451 0.230693,12.20093 -0.632809,0.21093 -1.381503,-0.21831 -1.663764,-0.953868 z m 6.445857,0 c -0.282261,-0.735561 -0.386074,-3.567062 -0.230694,-6.292223 0.208959,-3.66485 0.642118,-4.954839 1.663765,-4.954839 1.809759,0 2.029118,11.601451 0.230693,12.20093 -0.632809,0.21093 -1.381503,-0.21831 -1.663764,-0.953868 z m 6.445857,0 c -0.282261,-0.735561 -0.386074,-3.567062 -0.230694,-6.292223 0.208959,-3.66485 0.642118,-4.954839 1.663765,-4.954839 1.809759,0 2.029118,11.601451 0.230693,12.20093 -0.632809,0.21093 -1.381503,-0.21831 -1.663764,-0.953868 z m 6.445857,0 c -0.282261,-0.735561 -0.386074,-3.567062 -0.230693,-6.292223 0.208958,-3.66485 0.642117,-4.954839 1.663763,-4.954839 1.80976,0 2.02912,11.601451 0.23069,12.20093 -0.632805,0.21093 -1.381499,-0.21831 -1.66376,-0.953868 z"
         id="path8444" />
      <path
         style="fill:#cccccc;fill-opacity:1;stroke-width:0.920837"
         d="m 64.658033,107.78369 c -0.2554,-0.66556 -0.348876,-7.19951 -0.207724,-14.519892 L 64.706947,79.95401 h 22.100081 22.100082 l 0.2843,2.935763 c 0.21402,2.20993 0.78318,3.006761 2.3021,3.222928 1.89571,0.269792 2.01778,0.760705 2.01778,8.114278 0,7.353571 -0.12207,7.844481 -2.01778,8.114281 -1.51892,0.21616 -2.08808,1.013 -2.3021,3.22293 l -0.2843,2.93576 -21.892358,0.24693 c -17.410561,0.19637 -21.98742,-8.1e-4 -22.356719,-0.96319 z m 41.198017,-5.49939 c 0.22116,-2.293754 0.77245,-3.061444 2.36043,-3.286973 1.82411,-0.259065 2.07188,-0.829551 2.07188,-4.770348 0,-3.940797 -0.24777,-4.511283 -2.07188,-4.770348 -1.58798,-0.225529 -2.13927,-0.993219 -2.36043,-3.286973 l -0.28855,-2.99272 H 86.748686 67.929875 V 94.226979 105.27702 H 86.748686 105.5675 Z M 72.942662,99.488602 c -0.282261,-0.735561 -0.386074,-3.567062 -0.230694,-6.292223 0.208958,-3.66485 0.642118,-4.954839 1.663764,-4.954839 1.80976,0 2.029119,11.601451 0.230694,12.20093 -0.632809,0.21093 -1.381503,-0.21831 -1.663764,-0.953868 z m 6.445857,0 c -0.282261,-0.735561 -0.386074,-3.567062 -0.230694,-6.292223 0.208959,-3.66485 0.642118,-4.954839 1.663765,-4.954839 1.809759,0 2.029118,11.601451 0.230693,12.20093 -0.632809,0.21093 -1.381503,-0.21831 -1.663764,-0.953868 z m 6.445857,0 c -0.282261,-0.735561 -0.386074,-3.567062 -0.230694,-6.292223 0.208959,-3.66485 0.642118,-4.954839 1.663765,-4.954839 1.809759,0 2.029118,11.601451 0.230693,12.20093 -0.632809,0.21093 -1.381503,-0.21831 -1.663764,-0.953868 z m 6.445857,0 c -0.282261,-0.735561 -0.386074,-3.567062 -0.230694,-6.292223 0.208959,-3.66485 0.642118,-4.954839 1.663765,-4.954839 1.809759,0 2.029118,11.601451 0.230693,12.20093 -0.632809,0.21093 -1.381503,-0.21831 -1.663764,-0.953868 z m 6.445857,0 c -0.282261,-0.735561 -0.386074,-3.567062 -0.230693,-6.292223 0.208958,-3.66485 0.642117,-4.954839 1.663763,-4.954839 1.80976,0 2.02912,11.601451 0.23069,12.20093 -0.632805,0.21093 -1.381499,-0.21831 -1.66376,-0.953868 z"
         id="path8442" />
    </g>
  </g>
</svg>
