<?xml version="1.0" encoding="UTF-8" standalone="no"?>
<!-- Created with Inkscape (http://www.inkscape.org/) -->

<svg
   width="180mm"
   height="180mm"
   viewBox="0 0 180 180"
   version="1.1"
   id="svg5"
   inkscape:version="1.1.1 (3bf5ae0d25, 2021-09-20)"
   sodipodi:docname="signal_3.svg"
   xmlns:inkscape="http://www.inkscape.org/namespaces/inkscape"
   xmlns:sodipodi="http://sodipodi.sourceforge.net/DTD/sodipodi-0.dtd"
   xmlns="http://www.w3.org/2000/svg"
   xmlns:svg="http://www.w3.org/2000/svg">
  <sodipodi:namedview
     id="namedview7"
     pagecolor="#ffffff"
     bordercolor="#666666"
     borderopacity="1.0"
     inkscape:pageshadow="2"
     inkscape:pageopacity="0.0"
     inkscape:pagecheckerboard="0"
     inkscape:document-units="mm"
     showgrid="false"
     inkscape:zoom="0.5"
     inkscape:cx="485"
     inkscape:cy="420"
     inkscape:window-width="1920"
     inkscape:window-height="1048"
     inkscape:window-x="1366"
     inkscape:window-y="0"
     inkscape:window-maximized="1"
     inkscape:current-layer="layer1" />
  <defs
     id="defs2" />
  <g
     inkscape:label="Layer 1"
     inkscape:groupmode="layer"
     id="layer1">
    <g
       id="g10844"
       transform="matrix(0.8932192,0,0,0.8932192,47.504827,59.504838)"
       style="fill:#cccccc">
      <path
         style="fill:#cccccc;fill-opacity:1;stroke-width:1.8378"
         d="m 42.775951,71.888585 c -1.829843,-4.768496 0.734906,-8.709692 5.250585,-8.068462 3.037399,0.431314 4.143276,1.814664 4.143276,5.182858 0,3.368195 -1.105877,4.751545 -4.143276,5.182859 -2.485223,0.352904 -4.586397,-0.56641 -5.250585,-2.297255 z M 27.35946,50.597931 c 0,-5.399015 10.280932,-10.986071 20.215842,-10.986071 9.93491,0 20.215842,5.587056 20.215842,10.986071 0,4.599657 -4.857863,4.865556 -9.650554,0.528231 -2.041258,-1.847313 -6.458149,-3.174387 -10.565288,-3.174387 -4.107139,0 -8.52403,1.327074 -10.565288,3.174387 -4.792691,4.337325 -9.650554,4.071426 -9.650554,-0.528231 z M 10.819226,34.405064 c 0,-4.491822 6.459018,-10.297968 16.540234,-14.868355 16.1481,-7.320853 40.684586,-3.777056 52.836859,7.631209 5.21888,4.899358 5.465818,10.592399 0.459451,10.592399 -2.021584,0 -3.675607,-0.792151 -3.675607,-1.760333 0,-0.968185 -3.928306,-4.069479 -8.729568,-6.891765 -7.136626,-4.195064 -10.909384,-5.131431 -20.675293,-5.131431 -9.765909,0 -13.538667,0.936367 -20.675293,5.131431 -4.801262,2.822286 -8.729568,5.92358 -8.729568,6.891765 0,0.968182 -1.654023,1.760333 -3.675607,1.760333 -2.333425,0 -3.675608,-1.225204 -3.675608,-3.355253 z M -1.7137707,15.24722 C -0.96549238,9.9785012 13.547681,0.13587463 26.037261,-3.5731314 c 11.950941,-3.5490491 31.125141,-3.5490491 43.076082,0 12.48958,3.70900603 27.002753,13.5516326 27.751032,18.8203514 0.806595,5.679347 -5.091299,5.505619 -10.555658,-0.310923 -16.279137,-17.3283454 -61.187693,-17.3283454 -77.4668301,0 -5.4643585,5.816542 -11.3622532,5.99027 -10.5556576,0.310923 z"
         id="path10858" />
      <path
         style="fill:#cccccc;fill-opacity:1;stroke-width:1.8378"
         d="m 42.775951,71.888585 c -1.829843,-4.768496 0.734906,-8.709692 5.250585,-8.068462 3.037399,0.431314 4.143276,1.814664 4.143276,5.182858 0,3.368195 -1.105877,4.751545 -4.143276,5.182859 -2.485223,0.352904 -4.586397,-0.56641 -5.250585,-2.297255 z M 27.69109,50.371633 C 28.440592,45.357371 39.070196,39.59812 47.575302,39.59812 c 8.505106,0 19.13471,5.759251 19.884212,10.773513 0.759728,5.082671 -3.906754,5.198631 -10.19371,0.25331 -2.570029,-2.021584 -6.930755,-3.675607 -9.690502,-3.675607 -2.759747,0 -7.120473,1.654023 -9.690502,3.675607 -6.286956,4.945321 -10.953438,4.829361 -10.19371,-0.25331 z M 10.819226,34.178237 c 0,-1.970144 2.892861,-5.788571 6.428581,-8.485398 17.454301,-13.313043 43.200689,-13.313043 60.65499,0 7.166259,5.465972 8.672271,12.067478 2.752973,12.067478 -2.021584,0 -3.675607,-0.792151 -3.675607,-1.760333 0,-0.968185 -3.928306,-4.069479 -8.729568,-6.891765 -7.136626,-4.195064 -10.909384,-5.131431 -20.675293,-5.131431 -9.765909,0 -13.538667,0.936367 -20.675293,5.131431 -4.801262,2.822286 -8.729568,5.92358 -8.729568,6.891765 0,0.968182 -1.654023,1.760333 -3.675607,1.760333 -2.418416,0 -3.675608,-1.225204 -3.675608,-3.58208 z M -1.7137707,15.24722 C -0.96549238,9.9785012 13.547681,0.13587463 26.037261,-3.5731314 c 11.950941,-3.5490491 31.125141,-3.5490491 43.076082,0 12.48958,3.70900603 27.002753,13.5516326 27.751032,18.8203514 0.806595,5.679347 -5.091299,5.505619 -10.555658,-0.310923 -16.279137,-17.3283454 -61.187693,-17.3283454 -77.4668301,0 -5.4643585,5.816542 -11.3622532,5.99027 -10.5556576,0.310923 z"
         id="path10856" />
      <path
         style="fill:#cccccc;fill-opacity:1;stroke-width:1.8378"
         d="m 42.775951,71.888585 c -1.829843,-4.768496 0.734906,-8.709692 5.250585,-8.068462 3.037399,0.431314 4.143276,1.814664 4.143276,5.182858 0,3.368195 -1.105877,4.751545 -4.143276,5.182859 -2.485223,0.352904 -4.586397,-0.56641 -5.250585,-2.297255 z M 28.16025,52.271637 c -0.689665,-1.115901 0.934347,-4.217195 3.608914,-6.891764 4.169718,-4.169716 6.422672,-4.862851 15.806138,-4.862851 9.474505,0 11.618254,0.674967 15.972186,5.0289 7.017104,7.017105 3.549436,10.517463 -5.159453,5.20809 -7.813882,-4.763729 -13.756126,-4.797622 -21.424525,-0.122195 -7.013965,4.276416 -7.15726,4.303109 -8.80326,1.639824 z M 11.688178,35.841694 c -2.0849183,-3.373469 4.182228,-10.392105 13.278756,-14.870998 12.453614,-6.131838 32.763122,-6.131838 45.216736,0 9.863958,4.856757 15.904744,12.092099 12.738875,15.257967 C 81.54078,37.610429 78.9003,36.571335 73.91978,32.68585 57.476069,19.857518 37.787607,19.777982 21.494363,32.474063 c -7.570458,5.899082 -8.124144,6.089229 -9.806185,3.367631 z M -1.2246411,17.385678 C -3.1582588,14.257017 8.5012702,3.5180548 18.872006,-1.1242578 c 13.64607,-6.1084684 43.760522,-6.1084684 57.406592,0 C 87.858976,4.0595343 98.899667,14.73813 95.841119,17.796678 94.289183,19.348614 91.895446,18.404152 86.450206,14.091444 74.08655,4.2992464 66.908539,2.0817266 47.575302,2.0817266 c -19.217663,0 -26.525665,2.2289381 -38.5609868,11.7610894 -7.778148,6.160407 -8.47269452,6.400733 -10.2389563,3.542862 z"
         id="path10854" />
      <path
         style="fill:#cccccc;fill-opacity:1;stroke-width:1.8378"
         d="m 42.775951,71.888585 c -1.829843,-4.768496 0.734906,-8.709692 5.250585,-8.068462 3.037399,0.431314 4.143276,1.814664 4.143276,5.182858 0,3.368195 -1.105877,4.751545 -4.143276,5.182859 -2.485223,0.352904 -4.586397,-0.56641 -5.250585,-2.297255 z M 28.228607,52.382242 C 25.465671,47.91172 38.046955,39.59812 47.575302,39.59812 c 10.024282,0 23.008552,8.969235 18.91307,13.064716 -1.284283,1.284283 -3.857257,0.67797 -8.100337,-1.908824 -7.813882,-4.763729 -13.756126,-4.797622 -21.424525,-0.122195 -6.976095,4.253326 -7.16467,4.291117 -8.734903,1.750429 z M 11.840628,36.08836 c -3.4165694,-5.528125 10.31029,-15.807642 25.310329,-18.953934 8.057937,-1.690169 12.790753,-1.690169 20.84869,0 C 73.63541,20.414062 87.7268,31.424409 82.709597,36.441612 81.611763,37.539446 78.360535,36.150244 73.91978,32.68585 57.476069,19.857518 37.787607,19.777982 21.494363,32.474063 14.04328,38.280127 13.354572,38.537974 11.840628,36.08836 Z M -1.2187969,17.395135 C -2.8616722,14.736904 6.4129627,5.191739 14.86127,0.84603142 26.314588,-5.0454181 45.510539,-7.4492103 60.532944,-4.8731534 c 15.059624,2.5824397 24.385399,6.9325507 31.964544,14.9102184 3.861733,4.064786 4.843508,6.259736 3.431491,7.671754 -1.41202,1.412019 -4.427913,0.107787 -10.541106,-4.558515 C 64.261096,-2.9761282 30.977511,-3.0433036 9.9621607,12.998079 0.62580679,20.12468 0.49897995,20.174556 -1.2187969,17.395135 Z"
         id="path10852" />
      <path
         style="fill:#cccccc;fill-opacity:1;stroke-width:1.8378"
         d="m 43.823144,71.667451 c -1.953181,-2.35344 -1.8325,-3.380855 0.693874,-5.907227 2.852509,-2.85251 3.264059,-2.85251 6.116568,0 2.526374,2.526372 2.647055,3.553787 0.693874,5.907227 -1.300427,1.566917 -2.988898,2.848942 -3.752158,2.848942 -0.76326,0 -2.451731,-1.282025 -3.752158,-2.848942 z M 28.206791,52.346941 c -1.880384,-3.042524 4.536277,-8.886779 12.316494,-11.217789 5.313328,-1.591911 8.790706,-1.591911 14.104034,0 8.610126,2.579658 14.756353,8.638384 11.781228,11.613509 -1.48262,1.482621 -3.373478,0.974771 -7.004293,-1.881229 -6.410066,-5.04216 -17.110109,-5.150495 -23.357258,-0.236489 -5.369194,4.223409 -6.183688,4.402301 -7.840205,1.721998 z M 11.654045,35.786464 c -1.6643522,-2.69298 5.86279,-10.411311 14.786513,-15.162087 10.360075,-5.515455 31.909413,-5.515455 42.269488,0 10.295957,5.481319 16.953372,12.863413 14.138866,15.67792 C 81.182235,37.968973 79.5069,37.34757 75.613927,33.618743 61.004895,19.62571 31.801599,19.732682 19.263957,33.825154 c -3.90642,4.390868 -5.805814,4.8804 -7.609912,1.96131 z M -1.3346778,17.207635 C -3.4103503,13.849126 11.574527,1.6785363 22.417247,-2.0834756 c 12.844437,-4.4565327 37.471673,-4.4565327 50.31611,0 11.713922,4.0642847 26.39882,16.4337466 23.299627,19.6258646 -1.57616,1.623418 -4.162183,0.556446 -10.645111,-4.392085 C 64.261096,-2.9761282 30.977511,-3.0433036 9.9621607,12.998079 0.54546536,20.186005 0.51343244,20.197942 -1.3346778,17.207635 Z"
         id="path10850" />
      <path
         style="fill:#cccccc;fill-opacity:1;stroke-width:1.8378"
         d="m 43.823144,71.667451 c -1.953181,-2.35344 -1.8325,-3.380855 0.693874,-5.907227 2.852509,-2.85251 3.264059,-2.85251 6.116568,0 2.526374,2.526372 2.647055,3.553787 0.693874,5.907227 -1.300427,1.566917 -2.988898,2.848942 -3.752158,2.848942 -0.76326,0 -2.451731,-1.282025 -3.752158,-2.848942 z M 28.206791,52.346941 c -1.880384,-3.042524 4.536277,-8.886779 12.316494,-11.217789 5.313328,-1.591911 8.790706,-1.591911 14.104034,0 8.610126,2.579658 14.756353,8.638384 11.781228,11.613509 -1.48262,1.482621 -3.373478,0.974771 -7.004293,-1.881229 -6.410066,-5.04216 -17.110109,-5.150495 -23.357258,-0.236489 -5.369194,4.223409 -6.183688,4.402301 -7.840205,1.721998 z M 11.654045,35.786464 C 9.9914351,33.096303 17.509378,25.381585 26.440558,20.612925 36.650452,15.16152 58.222401,15.201014 68.710046,20.690315 78.953501,26.051806 85.676233,33.474977 82.848912,36.302299 81.182235,37.968975 79.5069,37.347572 75.613927,33.618745 61.004895,19.625712 31.801599,19.732683 19.263957,33.825156 c -3.90642,4.390868 -5.805814,4.8804 -7.609912,1.961308 z M -1.3346778,17.207635 C -3.4103503,13.849126 11.574527,1.6785363 22.417247,-2.0834756 c 12.844437,-4.4565327 37.471673,-4.4565327 50.31611,0 11.971404,4.1536204 26.403778,16.4301036 23.195182,19.7303106 -1.71563,1.764613 -3.450151,1.185389 -8.05607,-2.690236 C 74.964656,4.0953898 68.413171,1.9867636 47.575302,1.9867636 c -20.724924,0 -27.408339,2.1246004 -39.9921287,12.7131624 -6.3220414,5.319648 -7.05295068,5.52518 -8.9178511,2.507709 z"
         id="path10848" />
      <path
         style="fill:#cccccc;fill-opacity:1;stroke-width:1.8378"
         d="m 43.823144,71.667451 c -1.953181,-2.35344 -1.8325,-3.380855 0.693874,-5.907227 2.852509,-2.85251 3.264059,-2.85251 6.116568,0 2.526374,2.526372 2.647055,3.553787 0.693874,5.907227 -1.300427,1.566917 -2.988898,2.848942 -3.752158,2.848942 -0.76326,0 -2.451731,-1.282025 -3.752158,-2.848942 z M 28.206791,52.346941 c -1.914033,-3.096969 4.601684,-8.914201 12.309146,-10.989605 4.862432,-1.309316 9.256298,-1.309316 14.11873,0 8.517397,2.293498 14.79514,8.364066 11.77388,11.385325 -1.48262,1.482621 -3.373478,0.974771 -7.004293,-1.881229 -6.410066,-5.04216 -17.110109,-5.150495 -23.357258,-0.236489 -5.369194,4.223409 -6.183688,4.402301 -7.840205,1.721998 z M 11.654045,35.786464 c -1.6808336,-2.719647 5.931807,-10.470115 14.786513,-15.054223 10.306446,-5.335677 31.963042,-5.335677 42.269488,0 10.210525,5.28602 16.974382,12.73454 14.138866,15.570056 C 81.182235,37.968973 79.5069,37.34757 75.613927,33.618743 61.004895,19.62571 31.801599,19.732682 19.263957,33.825154 c -3.90642,4.390868 -5.805814,4.8804 -7.609912,1.96131 z M -1.2105819,17.408426 C -2.9806443,14.544403 4.909472,6.8234019 14.699458,1.8393975 c 19.181271,-9.7650309 46.570417,-9.7650309 65.751688,0 C 91.609167,7.5198579 98.673217,14.964581 95.713538,17.924259 94.046862,19.590935 92.371527,18.993776 88.478553,15.345407 77.209081,4.7840241 68.490781,1.9231425 47.575302,1.9231425 c -17.315839,0 -20.240321,0.4984657 -28.485959,4.8553196 C 14.035383,9.4488884 8.3248778,13.377194 6.3993299,15.50803 2.483117,19.841768 0.58609185,20.315504 -1.2105819,17.408426 Z"
         id="path10846" />
    </g>
  </g>
</svg>
