<?xml version="1.0" encoding="UTF-8" standalone="no"?>
<!-- Created with Inkscape (http://www.inkscape.org/) -->

<svg
   width="180mm"
   height="180mm"
   viewBox="0 0 180 180"
   version="1.1"
   id="svg5"
   inkscape:version="1.1.1 (3bf5ae0d25, 2021-09-20)"
   sodipodi:docname="screenshot.svg"
   xmlns:inkscape="http://www.inkscape.org/namespaces/inkscape"
   xmlns:sodipodi="http://sodipodi.sourceforge.net/DTD/sodipodi-0.dtd"
   xmlns="http://www.w3.org/2000/svg"
   xmlns:svg="http://www.w3.org/2000/svg">
  <sodipodi:namedview
     id="namedview7"
     pagecolor="#ffffff"
     bordercolor="#666666"
     borderopacity="1.0"
     inkscape:pageshadow="2"
     inkscape:pageopacity="0.0"
     inkscape:pagecheckerboard="0"
     inkscape:document-units="mm"
     showgrid="false"
     inkscape:zoom="0.05990965"
     inkscape:cx="-3747.3095"
     inkscape:cy="1702.5638"
     inkscape:window-width="1920"
     inkscape:window-height="1048"
     inkscape:window-x="1366"
     inkscape:window-y="0"
     inkscape:window-maximized="1"
     inkscape:current-layer="layer1" />
  <defs
     id="defs2" />
  <g
     inkscape:label="Layer 1"
     inkscape:groupmode="layer"
     id="layer1">
    <g
       id="g7488"
       style="fill:#cccccc"
       transform="matrix(1.6067612,0,0,1.6067612,-16.474925,-79.281551)">
      <path
         style="fill:#cccccc;fill-opacity:1;stroke-width:0.933609"
         d="m 46.378131,126.30237 c -4.416885,-2.39658 -5.379989,-5.6447 -5.379989,-18.14433 0,-12.634842 0.973047,-15.811832 5.571095,-18.189574 1.506263,-0.77892 3.98255,-1.416217 5.502859,-1.416217 1.925205,0 3.47952,-0.850111 5.120939,-2.800827 2.212772,-2.62973 2.763333,-2.800828 9.012553,-2.800828 6.249219,0 6.79978,0.171098 9.012552,2.800828 1.641419,1.950716 3.195734,2.800827 5.120939,2.800827 3.902978,0 7.998522,2.362527 9.657737,5.571095 1.999766,3.86712 1.999766,24.202276 0,28.069396 -2.583206,4.99536 -5.094948,5.57503 -23.978268,5.53371 -13.286789,-0.0291 -17.652859,-0.34564 -19.640417,-1.42408 z m 38.571454,-5.00199 c 2.690049,-2.69005 2.729012,-2.87768 2.729012,-13.14234 0,-10.264661 -0.03896,-10.452295 -2.729012,-13.142344 -2.017044,-2.017044 -3.615957,-2.729011 -6.128733,-2.729011 -2.631342,0 -3.932374,-0.633021 -5.756462,-2.800827 -2.018627,-2.399001 -3.002638,-2.800827 -6.858802,-2.800827 -3.856165,0 -4.840176,0.401826 -6.858803,2.800827 -1.824088,2.167806 -3.12512,2.800827 -5.756462,2.800827 -2.512776,0 -4.111689,0.711967 -6.128733,2.729011 -2.690049,2.690049 -2.729012,2.877683 -2.729012,13.142344 0,10.26466 0.03896,10.45229 2.729012,13.14234 l 2.729011,2.72901 h 16.014987 16.014986 z m -23.878847,-2.77897 c -1.02697,-0.45269 -2.917529,-1.95318 -4.201241,-3.33442 -1.942145,-2.08969 -2.334023,-3.4362 -2.334023,-8.01982 0,-4.97654 0.294747,-5.80323 3.052184,-8.560669 2.764533,-2.764533 3.576722,-3.052184 8.61793,-3.052184 5.041207,0 5.853396,0.287651 8.617929,3.052184 2.764534,2.764529 3.052184,3.576719 3.052184,8.617929 0,5.0009 -0.299132,5.86488 -2.947493,8.51324 -2.334369,2.33437 -3.888015,3.01607 -7.468873,3.27716 -2.486758,0.18132 -5.361627,-0.0407 -6.388597,-0.49342 z m 11.178849,-5.72273 c 2.627235,-2.62724 2.503059,-8.64544 -0.234876,-11.38337 -2.643571,-2.643572 -8.55915,-2.840026 -11.283289,-0.37471 -4.074073,3.68698 -3.142994,10.8671 1.739729,13.41612 2.915447,1.522 7.350387,0.77001 9.778436,-1.65804 z"
         id="path7502" />
      <path
         style="fill:#cccccc;fill-opacity:1;stroke-width:0.933609"
         d="m 46.378131,126.30237 c -4.416885,-2.39658 -5.379989,-5.6447 -5.379989,-18.14433 0,-12.634842 0.973047,-15.811832 5.571095,-18.189574 1.506263,-0.77892 3.98255,-1.416217 5.502859,-1.416217 1.925205,0 3.47952,-0.850111 5.120939,-2.800827 2.212772,-2.62973 2.763333,-2.800828 9.012553,-2.800828 6.249219,0 6.79978,0.171098 9.012552,2.800828 1.641419,1.950716 3.195734,2.800827 5.120939,2.800827 3.902978,0 7.998522,2.362527 9.657737,5.571095 1.999766,3.86712 1.999766,24.202276 0,28.069396 -2.583206,4.99536 -5.094948,5.57503 -23.978268,5.53371 -13.286789,-0.0291 -17.652859,-0.34564 -19.640417,-1.42408 z m 38.571454,-5.00199 c 2.690049,-2.69005 2.729012,-2.87768 2.729012,-13.14234 0,-10.264661 -0.03896,-10.452295 -2.729012,-13.142344 -2.017044,-2.017044 -3.615957,-2.729011 -6.128733,-2.729011 -2.631342,0 -3.932374,-0.633021 -5.756462,-2.800827 -2.018627,-2.399001 -3.002638,-2.800827 -6.858802,-2.800827 -3.856165,0 -4.840176,0.401826 -6.858803,2.800827 -1.824088,2.167806 -3.12512,2.800827 -5.756462,2.800827 -2.512776,0 -4.111689,0.711967 -6.128733,2.729011 -2.690049,2.690049 -2.729012,2.877683 -2.729012,13.142344 0,10.26466 0.03896,10.45229 2.729012,13.14234 l 2.729011,2.72901 h 16.014987 16.014986 z m -25.000533,-3.76845 c -7.916881,-4.82721 -7.594049,-16.77832 0.567232,-20.998678 10.830025,-5.600424 22.321763,6.574428 15.9968,16.947718 -3.482114,5.71085 -10.876028,7.51914 -16.564032,4.05096 z m 12.300535,-4.73325 c 2.627235,-2.62724 2.503059,-8.64544 -0.234876,-11.38337 -2.643571,-2.643572 -8.55915,-2.840026 -11.283289,-0.37471 -4.074073,3.68698 -3.142994,10.8671 1.739729,13.41612 2.915447,1.522 7.350387,0.77001 9.778436,-1.65804 z"
         id="path7500" />
      <path
         style="fill:#cccccc;fill-opacity:1;stroke-width:0.933609"
         d="m 46.481045,126.1919 c -4.651666,-2.88692 -5.482903,-5.62095 -5.482903,-18.03386 0,-8.860517 0.338272,-11.954666 1.526956,-13.966948 1.925849,-3.260201 5.896266,-5.638843 9.412329,-5.638843 1.798526,0 3.621641,-0.945796 5.398874,-2.800827 2.452856,-2.560231 3.214747,-2.800828 8.869287,-2.800828 5.654539,0 6.41643,0.240597 8.869286,2.800828 1.777233,1.855031 3.600348,2.800827 5.398874,2.800827 3.516063,0 7.48648,2.378642 9.412329,5.638843 2.199178,3.722912 2.199178,24.210988 0,27.933898 -3.051771,5.16623 -5.067438,5.6412 -23.824538,5.614 -14.178207,-0.0206 -17.550104,-0.28699 -19.580494,-1.54709 z m 38.905966,-4.45409 c 2.180335,-2.18034 2.291586,-2.8396 2.291586,-13.57977 0,-10.740172 -0.111251,-11.399434 -2.291586,-13.579769 -1.64114,-1.641139 -3.314041,-2.291586 -5.893789,-2.291586 -2.78374,0 -4.211896,-0.636381 -6.285566,-2.800827 -2.224289,-2.321656 -3.422216,-2.800827 -7.002068,-2.800827 -3.579853,0 -4.77778,0.479171 -7.002069,2.800827 -2.07367,2.164446 -3.501826,2.800827 -6.285566,2.800827 -2.579748,0 -4.252649,0.650447 -5.893789,2.291586 -2.180335,2.180335 -2.291586,2.839597 -2.291586,13.579769 0,10.74017 0.111251,11.39943 2.291586,13.57977 2.264149,2.26415 2.493815,2.29158 19.181424,2.29158 16.687608,0 16.917274,-0.0274 19.181423,-2.29158 z m -25.437959,-4.20588 c -7.916881,-4.82721 -7.594049,-16.77832 0.567232,-20.998678 10.830025,-5.600424 22.321763,6.574428 15.9968,16.947718 -3.482114,5.71085 -10.876028,7.51914 -16.564032,4.05096 z m 11.930006,-4.63403 c 1.862547,-1.86255 2.729011,-3.66388 2.729011,-5.67347 0,-4.0163 -4.386182,-8.402481 -8.402481,-8.402481 -4.0163,0 -8.402482,4.386181 -8.402482,8.402481 0,2.00959 0.866464,3.81092 2.729011,5.67347 1.862547,1.86255 3.66388,2.72901 5.673471,2.72901 2.00959,0 3.810923,-0.86646 5.67347,-2.72901 z"
         id="path7498" />
      <path
         style="fill:#cccccc;fill-opacity:1;stroke-width:0.933609"
         d="m 46.899471,126.25764 c -4.671525,-2.30379 -5.901329,-6.07565 -5.901329,-18.0996 0,-7.58633 0.403975,-11.305626 1.472556,-13.557496 1.556868,-3.280856 6.100675,-6.048295 9.930581,-6.048295 1.283135,0 3.405876,-1.204742 4.935022,-2.800827 2.452856,-2.560231 3.214747,-2.800828 8.869287,-2.800828 5.654539,0 6.41643,0.240597 8.869286,2.800828 1.529146,1.596085 3.651887,2.800827 4.935022,2.800827 3.829906,0 8.373713,2.767439 9.930581,6.048295 2.067791,4.357547 2.067791,22.757446 0,27.114996 -2.511332,5.29223 -5.51767,6.05113 -23.875985,6.02703 -12.791535,-0.0168 -16.821094,-0.329 -19.165021,-1.48493 z m 38.48754,-4.51983 c 2.180335,-2.18034 2.291586,-2.8396 2.291586,-13.57977 0,-10.740172 -0.111251,-11.399434 -2.291586,-13.579769 -1.64114,-1.641139 -3.314041,-2.291586 -5.893789,-2.291586 -2.78374,0 -4.211896,-0.636381 -6.285566,-2.800827 -2.224289,-2.321656 -3.422216,-2.800827 -7.002068,-2.800827 -3.579853,0 -4.77778,0.479171 -7.002069,2.800827 -2.07367,2.164446 -3.501826,2.800827 -6.285566,2.800827 -2.579748,0 -4.252649,0.650447 -5.893789,2.291586 -2.180335,2.180335 -2.291586,2.839597 -2.291586,13.579769 0,10.74017 0.111251,11.39943 2.291586,13.57977 2.264149,2.26415 2.493815,2.29158 19.181424,2.29158 16.687608,0 16.917274,-0.0274 19.181423,-2.29158 z m -25.437959,-4.20588 c -7.916881,-4.82721 -7.594049,-16.77832 0.567232,-20.998678 10.830025,-5.600424 22.321763,6.574428 15.9968,16.947718 -3.482114,5.71085 -10.876028,7.51914 -16.564032,4.05096 z m 11.930006,-4.63403 c 1.862547,-1.86255 2.729011,-3.66388 2.729011,-5.67347 0,-4.0163 -4.386182,-8.402481 -8.402481,-8.402481 -4.0163,0 -8.402482,4.386181 -8.402482,8.402481 0,2.00959 0.866464,3.81092 2.729011,5.67347 1.862547,1.86255 3.66388,2.72901 5.673471,2.72901 2.00959,0 3.810923,-0.86646 5.67347,-2.72901 z"
         id="path7496" />
      <path
         style="fill:#cccccc;fill-opacity:1;stroke-width:0.933609"
         d="m 48.00021,126.90199 c -1.02697,-0.44065 -2.917528,-1.93128 -4.201241,-3.31252 -2.257236,-2.42871 -2.334022,-2.93827 -2.334022,-15.48869 V 95.123421 l 2.888007,-2.888009 c 2.014112,-2.01411 4.118116,-3.052999 6.953204,-3.433264 2.909154,-0.3902 4.700057,-1.299747 6.297673,-3.198406 2.05119,-2.437701 2.749688,-2.653148 8.601757,-2.653148 5.852068,0 6.550566,0.215447 8.601756,2.653148 1.597616,1.898659 3.388519,2.808206 6.297673,3.198406 2.835088,0.380265 4.939092,1.419154 6.953204,3.433264 l 2.888007,2.888009 v 13.034619 13.03462 l -3.049942,3.05218 -3.049942,3.05219 -17.489458,0.20307 c -9.619201,0.11169 -18.329706,-0.15746 -19.356676,-0.59811 z m 37.386801,-5.16418 c 2.180335,-2.18034 2.291586,-2.8396 2.291586,-13.57977 0,-10.740172 -0.111251,-11.399434 -2.291586,-13.579769 -1.660793,-1.660794 -3.308381,-2.291586 -5.985468,-2.291586 -2.958186,0 -4.163263,-0.557829 -6.050621,-2.800827 -2.054528,-2.441666 -2.970801,-2.800827 -7.145334,-2.800827 -4.174534,0 -5.090807,0.359161 -7.145335,2.800827 -1.887358,2.242998 -3.092435,2.800827 -6.050621,2.800827 -2.677087,0 -4.324675,0.630792 -5.985468,2.291586 -2.180335,2.180335 -2.291586,2.839597 -2.291586,13.579769 0,10.74017 0.111251,11.39943 2.291586,13.57977 2.264149,2.26415 2.493815,2.29158 19.181424,2.29158 16.687608,0 16.917274,-0.0274 19.181423,-2.29158 z m -24.783078,-3.96139 c -8.905796,-4.58614 -8.14104,-18.067108 1.227191,-21.632683 9.819409,-3.737294 19.192451,5.635753 15.455157,15.455153 -2.498679,6.56506 -10.311606,9.45821 -16.682348,6.17753 z m 11.275125,-4.87852 c 1.862547,-1.86255 2.729011,-3.66388 2.729011,-5.67347 0,-4.0163 -4.386182,-8.402481 -8.402481,-8.402481 -4.0163,0 -8.402482,4.386181 -8.402482,8.402481 0,2.00959 0.866464,3.81092 2.729011,5.67347 1.862547,1.86255 3.66388,2.72901 5.673471,2.72901 2.00959,0 3.810923,-0.86646 5.67347,-2.72901 z"
         id="path7494" />
      <path
         style="fill:#cccccc;fill-opacity:1;stroke-width:0.933609"
         d="m 48.00021,126.90199 c -1.02697,-0.44065 -2.917528,-1.93128 -4.201241,-3.31252 -2.257236,-2.42871 -2.334022,-2.93827 -2.334022,-15.48869 V 95.123421 l 2.888007,-2.888009 c 2.014112,-2.01411 4.118116,-3.052999 6.953204,-3.433264 2.909154,-0.3902 4.700057,-1.299747 6.297673,-3.198406 2.05119,-2.437701 2.749688,-2.653148 8.601757,-2.653148 5.852068,0 6.550566,0.215447 8.601756,2.653148 1.597616,1.898659 3.388519,2.808206 6.297673,3.198406 2.835088,0.380265 4.939092,1.419154 6.953204,3.433264 l 2.888007,2.888009 v 13.034619 13.03462 l -3.049942,3.05218 -3.049942,3.05219 -17.489458,0.20307 c -9.619201,0.11169 -18.329706,-0.15746 -19.356676,-0.59811 z m 37.386801,-5.16418 c 2.180335,-2.18034 2.291586,-2.8396 2.291586,-13.57977 0,-10.740172 -0.111251,-11.399434 -2.291586,-13.579769 -1.660793,-1.660794 -3.308381,-2.291586 -5.985468,-2.291586 -2.958186,0 -4.163263,-0.557829 -6.050621,-2.800827 -2.054528,-2.441666 -2.970801,-2.800827 -7.145334,-2.800827 -4.174534,0 -5.090807,0.359161 -7.145335,2.800827 -1.887358,2.242998 -3.092435,2.800827 -6.050621,2.800827 -2.677087,0 -4.324675,0.630792 -5.985468,2.291586 -2.180335,2.180335 -2.291586,2.839597 -2.291586,13.579769 0,10.74017 0.111251,11.39943 2.291586,13.57977 2.264149,2.26415 2.493815,2.29158 19.181424,2.29158 16.687608,0 16.917274,-0.0274 19.181423,-2.29158 z M 60.661503,117.6554 c -3.506306,-1.88045 -6.592834,-6.76386 -6.592834,-10.43097 0,-5.7686 6.368322,-12.136917 12.136919,-12.136917 5.768596,0 12.136918,6.368317 12.136918,12.136917 0,3.66711 -3.086528,8.55052 -6.592834,10.43097 -1.749512,0.93827 -4.244349,1.70595 -5.544084,1.70595 -1.299736,0 -3.794573,-0.76768 -5.544085,-1.70595 z m 11.217555,-4.7575 c 1.862547,-1.86255 2.729011,-3.66388 2.729011,-5.67347 0,-4.0163 -4.386182,-8.402481 -8.402481,-8.402481 -4.0163,0 -8.402482,4.386181 -8.402482,8.402481 0,2.00959 0.866464,3.81092 2.729011,5.67347 1.862547,1.86255 3.66388,2.72901 5.673471,2.72901 2.00959,0 3.810923,-0.86646 5.67347,-2.72901 z"
         id="path7492" />
      <path
         style="fill:#cccccc;fill-opacity:1;stroke-width:0.933609"
         d="m 47.533406,126.12856 c -5.087165,-2.54132 -6.532106,-6.47048 -6.533813,-17.7671 -0.0021,-14.056376 2.448286,-18.380073 11.072277,-19.536792 2.628974,-0.35262 4.242565,-1.259383 5.665174,-3.183564 1.859723,-2.51541 2.410859,-2.69051 8.468544,-2.69051 6.057684,0 6.60882,0.1751 8.468543,2.69051 1.422609,1.924181 3.0362,2.830944 5.665174,3.183564 8.623991,1.156719 11.074401,5.480416 11.072277,19.536792 -0.0017,11.29662 -1.446648,15.22578 -6.533813,17.7671 -2.714612,1.3561 -5.874722,1.63237 -18.672181,1.63237 -12.79746,0 -15.95757,-0.27627 -18.672182,-1.63237 z m 37.853605,-4.39075 c 2.180335,-2.18034 2.291586,-2.8396 2.291586,-13.57977 0,-10.740172 -0.111251,-11.399434 -2.291586,-13.579769 -1.672132,-1.672131 -3.304984,-2.291586 -6.04051,-2.291586 -3.082899,0 -4.116805,-0.497587 -5.819664,-2.800827 -1.87387,-2.534544 -2.569922,-2.800827 -7.321249,-2.800827 -4.751328,0 -5.44738,0.266283 -7.32125,2.800827 -1.702859,2.30324 -2.736765,2.800827 -5.819664,2.800827 -2.735526,0 -4.368378,0.619455 -6.04051,2.291586 -2.180335,2.180335 -2.291586,2.839597 -2.291586,13.579769 0,10.74017 0.111251,11.39943 2.291586,13.57977 2.264149,2.26415 2.493815,2.29158 19.181424,2.29158 16.687608,0 16.917274,-0.0274 19.181423,-2.29158 z m -22.674537,-3.00673 c -3.004264,-0.61893 -7.358034,-5.3112 -8.025738,-8.64972 -2.371016,-11.855079 11.424583,-19.612529 19.866128,-11.170984 3.964561,3.964564 4.511019,8.707374 1.683307,14.609744 -1.871003,3.90541 -8.138524,6.32041 -13.523697,5.21096 z m 9.277084,-5.61286 c 5.415253,-5.18814 1.730295,-14.296271 -5.78397,-14.296271 -4.445172,0 -8.402482,3.905591 -8.402482,8.292661 0,7.53492 8.731324,11.22995 14.186452,6.00361 z"
         id="path7490" />
    </g>
  </g>
</svg>
